{
   "ContactsModel":[
      {
         "id":"c200",
         "name":"Ravi Tamada",
         "email":"ravi@gmail.com",
         "gender":"male",
         "phone":"+919111011382 "
      },
      {
         "id":"c201",
         "name":"Johnny Depp",
         "email":"johnny_depp@gmail.com",
         "gender":"male",
         "phone":"+919111011382"
      },
      {
         "id":"c202",
         "name":"Leonardo Dicaprio",
         "email":"leonardo_dicaprio@gmail.com",
         "gender":"male",
         "phone":"+919111011382"
      },
      {
         "id":"c203",
         "name":"John Wayne",
         "email":"john_wayne@gmail.com",
         "gender":"male",
         "phone":"+919111011382"
      },
      {
         "id":"c204",
         "name":"Angelina Jolie",
         "email":"angelina_jolie@gmail.com",
         "gender":"female",
         "phone":"+919111011382"
      },
      {
         "id":"c205",
         "name":"Dido",
         "email":"dido@gmail.com",
         "gender":"female",
         "phone":"+919111011382"
      },
      {
         "id":"c206",
         "name":"Adele",
         "email":"adele@gmail.com",
         "gender":"female",
         "phone":"+919111011382"
      },
      {
         "id":"c207",
         "name":"Hugh Jackman",
         "email":"hugh_jackman@gmail.com",
         "gender":"male",
         "phone":"+919111011382"
      },
      {
         "id":"c208",
         "name":"Will Smith",
         "email":"will_smith@gmail.com",
         "gender":"male",
         "phone":"+919111011382"
      },
      {
         "id":"c209",
         "name":"Clint Eastwood",
         "email":"clint_eastwood@gmail.com",
         "gender":"male",
         "phone":"+919111011382"
      },
      {
         "id":"c2010",
         "name":"Barack Obama",
         "email":"barack_obama@gmail.com",
         "gender":"male",
         "phone":"+919111011382"
      },
      {
         "id":"c2011",
         "name":"Kate Winslet",
         "email":"kate_winslet@gmail.com",
         "gender":"female",
         "phone":"+919111011382"
      },
      {
         "id":"c2012",
         "name":"Eminem",
         "email":"eminem@gmail.com",
         "gender":"male",
         "phone":"+919111011382"
      }
   ]
}